…
  data <- GET(url)
  
  parsed <- fromJSON(rawToChar(data$content))
  
  parsed$results <- as_tibble(parsed$results)
  
  parsed$results <- within(parsed$results, primary_exchange[market == "otc"] <- "OTC")

  return(parsed$results)
}
Tickers("ETF", "ticker", "asc", 50)
```

    ## # A tibble: 50 x 12
    ##    ticker name  market locale prima~1 type  active curre~2 cik  
    ##    <chr>  <chr> <chr>  <chr>  <chr>   <chr> <lgl>  <chr>   <chr>
    ##  1 AAA    AAF ~ stocks us     ARCX    ETF   TRUE   usd     0001~
    ##  2 AAAU   Gold~ stocks us     BATS    ETF   TRUE   usd     0001~
    ##  3 AADR   Advi~ stocks us     XNAS    ETF   TRUE   usd     0001~
    ##  4 AAPB   Gran~ stocks us     XNAS    ETF   TRUE   usd     0001~
    ##  5 AAPD   Dire~ stocks us     XNAS    ETF   TRUE   usd     <NA> 
    ##  6 AAPU   Dire~ stocks us     XNAS    ETF   TRUE   usd     <NA> 
    ##  7 AAXJ   iSha~ stocks us     XNAS    ETF   TRUE   usd     0001~
    ##  8 ABEQ   Abso~ stocks us     ARCX    ETF   TRUE   usd     <NA> 
    ##  9 ACES   ALPS~ stocks us     ARCX    ETF   TRUE   usd     0001~
    ## 10 ACIO   Aptu~ stocks us     BATS    ETF   TRUE   usd     0001~
    ## # ... with 40 more rows, 3 more variables:
    ## #   composite_figi <chr>, share_class_figi <chr>,
    ## #   last_updated_utc <chr>, and abbreviated variable names
    ## #   1: primary_exchange, 2: currency_name
…
  base_1 <- "https://api.polygon.io/v2/aggs/ticker/"
  base_2 <- "/range/1/day/"
  base_3 <- "?adjusted=true&limit=50&apiKey=OSOTVVjvsUEE8FFAyyX0n3XnWMpFdZv7"
  
  url <- paste(base_1, ticker, base_2, from, "/", to, base_3, sep = "")
  data <- GET(url)
  parsed <- fromJSON(rawToChar(data$content))
  return(as_tibble(parsed$results))
}
stock_price("ticker", "AAPL", "2021-07-22", "2022-07-22")
```

    ## # A tibble: 50 x 8
    ##            v    vw     o     c     h     l             t      n
    ##        <dbl> <dbl> <dbl> <dbl> <dbl> <dbl>         <dbl>  <int>
    ##  1  77287356  147.  146.  147.  148.  146. 1626926400000 480209
    ##  2  71447416  148.  148.  149.  149.  147. 1627012800000 457247
    ##  3  72434089  149.  148.  149.  150.  148. 1627272000000 489114
    ##  4 104803028  147.  149.  147.  149.  146. 1627358400000 785621
    ##  5 118931191  145.  145.  145.  147.  143. 1627444800000 829463
    ##  6  56699475  146.  145.  146.  147.  145. 1627531200000 416123
    ##  7  70440626  145.  144.  146.  146.  144. 1627617600000 466325
    ##  8  61351461  146.  146.  146.  147.  145. 1627876800000 458358
    ##  9  63536618  147.  146.  147.  148.  145. 1627963200000 462817
    ## 10  56357771  147.  147.  147.  148.  146. 1628049600000 402501
    ## # ... with 40 more rows
…
}
  else{
    url <- paste(base,Date,"?adjusted=true&apiKey=woI7TWx23Hf4JkX9Rghf7tvlpaF3jVma",sep="")
  data <- GET(url)
  parsed <- fromJSON(rawToChar(data$content))
  result <- as_tibble(parsed$results)
  Movement <- if_else(result$o <  result$c, "Up", "Down")
  result$Movement <- Movement
  return(result)
  }
}
groupedDaily()
```

    ## # A tibble: 10,914 x 10
    ##    T          v     vw      o      c      h      l       t     n
    ##    <chr>  <dbl>  <dbl>  <dbl>  <dbl>  <dbl>  <dbl>   <dbl> <int>
    ##  1 POET  5.05e4   2.97   2.97   2.93   3.06   2.81 1.67e12   187
    ##  2 LOAN  4.03e4   5.78   5.78   5.6    5.89   5.59 1.67e12   226
    ##  3 GPOR  1.41e5  95.9   96.8   95.2   98.6   94.7  1.67e12  4030
    ##  4 EAF   2.54e6   4.23   4.17   4.23   4.27   4.16 1.67e12 12585
    ##  5 DLB   2.80e5  65.1   66.6   64.9   66.6   64.6  1.67e12  6679
    ##  6 VNO   5.33e6  21.3   21.8   21.3   22.0   21.1  1.67e12 26901
    ##  7 WTFCP 1.77e4  25.0   25.0   25.1   25.2   25.0  1.67e12   153
    ##  8 VV    8.05e5 167.   169.   166    169.   165.   1.67e12  4034
    ##  9 FTCI  1.07e6   2.80   2.85   2.8    2.90   2.75 1.67e12  7804
    ## 10 WNC   3.29e5  16.3   16.6   16.2   16.7   16.1  1.67e12  3886
    ## # ... with 10,904 more rows, and 1 more variable:
    ## #   Movement <chr>
…
Using stock price data of AAPL, we have created variable movement which
determines whether there is an up movement or down movement for a
particular day.

``` r
data_new_variable <- data[[2]]
Movement <- if_else(data_new_variable$o < data_new_variable$c, "Up", "Down")
data_new_variable$Movement <- Movement
data_new_variable
```

    ## # A tibble: 50 x 9
    ##           v    vw     o     c     h     l       t      n Movem~1
    ##       <dbl> <dbl> <dbl> <dbl> <dbl> <dbl>   <dbl>  <int> <chr>  
    ##  1   7.73e7  147.  146.  147.  148.  146. 1.63e12 480209 Up     
    ##  2   7.14e7  148.  148.  149.  149.  147. 1.63e12 457247 Up     
    ##  3   7.24e7  149.  148.  149.  150.  148. 1.63e12 489114 Up     
    ##  4   1.05e8  147.  149.  147.  149.  146. 1.63e12 785621 Down   
    ##  5   1.19e8  145.  145.  145.  147.  143. 1.63e12 829463 Up     
    ##  6   5.67e7  146.  145.  146.  147.  145. 1.63e12 416123 Up     
    ##  7   7.04e7  145.  144.  146.  146.  144. 1.63e12 466325 Up     
    ##  8   6.14e7  146.  146.  146.  147.  145. 1.63e12 458358 Down   
    ##  9   6.35e7  147.  146.  147.  148.  145. 1.63e12 462817 Up     
    ## 10   5.64e7  147.  147.  147.  148.  146. 1.63e12 402501 Down   
    ## # ... with 40 more rows, and abbreviated variable name
    ## #   1: Movement
…
